CPUQuartus/mipsHardware.vcd
$comment
Copyright (C) 1991-2010 Altera Corporation
Your use of Altera Corporation's design tools, logic functions 
and other software and tools, and its AMPP partner logic 
functions, and any output files from any of the foregoing 
(including device programming or simulation files), and any 
associated documentation or information are expressly subject 
to the terms and conditions of the Altera Program License 
Subscription Agreement, Altera MegaCore Function License 
Agreement, or other applicable license agreement, including, 
without limitation, that your use is for the sole purpose of 
programming logic devices manufactured by Altera and sold by 
Altera or its authorized distributors.  Please refer to the 
applicable agreement for further details.
$end

$date 
  10/11/2019 03:44:00 
$end
$version 
 QUARTUS_VCD_EXPORT 1.0 
$end
$timescale
  1 ps
$end
$scope module schemeHard $end
$var reg 1 ! clk $end
$var reg 32 " aluAOut[31:0] $end
$var reg 32 # aluBOut[31:0] $end
$var reg 3 $ alucontrol[2:0] $end
$var reg 32 % aluresult[31:0] $end
$var reg 6 & funct[5:0] $end
$var reg 6 ' functOut[5:0] $end
$var reg 1 ( instControl $end
$var reg 32 ) IORDout[31:0] $end
$var reg 32 * memtoReg[31:0] $end
$var reg 4 + memtoRegmux[3:0] $end
$var reg 32 , pcOut[31:0] $end
$var reg 5 - rd[4:0] $end
$var reg 1 . RegWriteC $end
$var reg 1 / reset $end
$var reg 5 0 rs[4:0] $end
$var reg 5 1 rt[4:0] $end
$var reg 7 2 stateOut[6:0] $end
$var reg 32 3 ulaOut_t[31:0] $end
$var reg 5 4 writeRegOut[4:0] $end
$upscope $end
$enddefinitions $end
#0
$dumpvars
0!
b0 "
b0 #
b0 $
b0 %
b0 &
b0 '
0(
b0 )
b0 *
b0 +
b0 ,
b0 -
0.
0/
b0 0
b0 1
b0 2
b0 3
b0 4
$end
#10000
1!
b100 #
b1 $
b100 %
b1001 +
b1 2
#20000
0!
#30000
1!
b10 2
#40000
0!
#50000
1!
b100 "
b1000 %
1(
b100 )
b100 ,
b11 2
#60000
0!
#70000
1!
b11111111111111101000000010010000 #
b11111111111111101000000010010100 %
b100100 &
0(
b10100 -
b10100 0
b1010 1
b100 2
b10100 4
#80000
0!
#90000
1!
b0 $
b100 %
b100100 '
b110 2
b11111111111111101000000010010100 3
#100000
0!
#110000
1!
b0 "
b0 #
b11 $
b0 %
b111 2
#120000
0!
#130000
1!
b0 $
b0 +
1.
b1000100 2
b0 3
#140000
0!
#150000
1!
b100 "
b100 %
0.
b1000101 2
b1010 4
#160000
0!
#170000
1!
b0 2
#180000
0!
#190000
1!
b100 #
b1 $
b1000 %
b1001 +
b1 2
b10100 4
#200000
0!
#210000
1!
b10 2
#220000
0!
#230000
1!
b1000 "
b1100 %
1(
b1000 )
b1000 ,
b11 2
#240000
0!
#250000
1!
b0 #
b1000 %
b0 &
0(
b0 -
b0 0
b0 1
b100 2
b0 4
#260000
0!
#270000
1!
b0 $
b0 '
b110 2
b1000 3
