CPUQuartus/mipsHardware.vcd
$comment
Copyright (C) 1991-2010 Altera Corporation
Your use of Altera Corporation's design tools, logic functions 
and other software and tools, and its AMPP partner logic 
functions, and any output files from any of the foregoing 
(including device programming or simulation files), and any 
associated documentation or information are expressly subject 
to the terms and conditions of the Altera Program License 
Subscription Agreement, Altera MegaCore Function License 
Agreement, or other applicable license agreement, including, 
without limitation, that your use is for the sole purpose of 
programming logic devices manufactured by Altera and sold by 
Altera or its authorized distributors.  Please refer to the 
applicable agreement for further details.
$end

$date 
  10/16/2019 12:58:22 
$end
$version 
 QUARTUS_VCD_EXPORT 1.0 
$end
$timescale
  1 ps
$end
$scope module schemeHard $end
$var reg 32 ! aluAOut[31:0] $end
$var reg 32 " aluBOut[31:0] $end
$var reg 3 # alucontrol[2:0] $end
$var reg 32 $ aluresult[31:0] $end
$var reg 16 % bSExtended[15:0] $end
$var reg 1 & clk $end
$var reg 1 ' debug $end
$var reg 6 ( funct[5:0] $end
$var reg 6 ) functOut[5:0] $end
$var reg 1 * instControl $end
$var reg 32 + IORDout[31:0] $end
$var reg 4 , memtoRegmux[3:0] $end
$var reg 1 - muxXCHG $end
$var reg 6 . opcodeW[5:0] $end
$var reg 32 / pcOut[31:0] $end
$var reg 5 0 rd[4:0] $end
$var reg 1 1 RegWriteC $end
$var reg 1 2 reset $end
$var reg 1 3 resetD2 $end
$var reg 5 4 rs[4:0] $end
$var reg 5 5 rt[4:0] $end
$var reg 32 6 sExtended[31:0] $end
$var reg 7 7 stateOut[6:0] $end
$var reg 32 8 ulaOut_t[31:0] $end
$var reg 32 9 wrData[31:0] $end
$var reg 5 : wrReg[4:0] $end
$var reg 32 ; xCHG[31:0] $end
$var reg 32 < xchgOUT[31:0] $end
$scope module inst6 $end
$var reg 32 = Reg10[31:0] $end
$var reg 32 > Reg20[31:0] $end
$upscope $end
$upscope $end
$enddefinitions $end
#0
$dumpvars
b0 !
b0 "
b0 #
b0 $
b0 %
0&
0'
b0 (
b0 )
0*
b0 +
b0 ,
0-
b0 .
b0 /
b0 0
01
02
03
b0 4
b0 5
b0 6
b0 7
b0 8
b0 9
b0 :
b0 ;
b0 <
b0 =
b0 >
$end
#10000
b100 "
b1 #
b100 $
1&
1'
b1001 ,
b1 7
b11101 :
#20000
0&
0'
#30000
1&
1'
b10 7
#40000
0&
0'
#50000
b100 !
b1000 $
1&
1'
1*
b100 +
b100 /
b11 7
#60000
0&
0'
#70000
b1010000 "
b1010100 $
b10100 %
1&
1'
b10100 (
0*
b1000 .
b10100 4
b10100 5
b10100 6
b100 7
#80000
0&
0'
#90000
1&
1'
b10100 )
b110 7
b1010100 8
#100000
0&
0'
#110000
b0 !
b10100 "
b10100 $
1&
1'
b1000 7
#120000
0&
0'
#130000
b0 "
b0 #
b0 $
1&
1'
b0 ,
11
b1000100 7
b10100 8
b10100 9
b10100 :
#140000
0&
0'
#150000
b100 !
b100 $
1&
1'
01
b1000101 7
b10100 >
#160000
0&
0'
#170000
b10100 "
1&
1'
b0 7
b10100 <
#180000
0&
0'
#190000
b100 "
b1 #
b1000 $
1&
1'
b1001 ,
b1 7
b0 9
b11101 :
#200000
0&
0'
#210000
1&
1'
b10 7
#220000
0&
0'
#230000
b1000 !
b1100 $
1&
1'
1*
b1000 +
b1000 /
b11 7
#240000
0&
0'
#250000
b1111000 "
b10000000 $
b11110 %
1&
1'
b11110 (
0*
b1010 4
b1010 5
b11110 6
b100 7
#260000
0&
0'
#270000
1&
1'
b11110 )
b110 7
b10000000 8
b0 <
#280000
0&
0'
#290000
b0 !
b11110 "
b11110 $
1&
1'
b1000 7
#300000
0&
0'
#310000
b0 "
b0 #
b0 $
1&
1'
b0 ,
11
b1000100 7
b11110 8
b11110 9
b1010 :
#320000
0&
0'
#330000
b1000 !
b1000 $
1&
1'
01
b1000101 7
b11110 =
#340000
0&
0'
#350000
b11110 "
1&
1'
b0 7
b11110 <
#360000
0&
0'
#370000
b100 "
b1 #
b1100 $
1&
1'
b1001 ,
b1 7
b0 9
b11101 :
#380000
0&
0'
#390000
1&
1'
b10 7
#400000
0&
0'
#410000
b1100 !
b10000 $
1&
1'
1*
b1100 +
b1100 /
b11 7
#420000
0&
0'
#430000
b10100 "
b100000 $
b101 %
1&
1'
b101 (
0*
b0 .
b10100 4
b101 6
b100 7
#440000
0&
0'
#450000
1&
1'
b101 )
b110 7
b100000 8
b10100 <
#460000
0&
0'
#470000
1&
1'
b1000 ,
b1010 7
b10100 9
b1010 :
#480000
0&
0'
#490000
b10100 !
b11110 "
b0 #
b10100 $
1&
1'
1-
b1000100 7
b11110 9
b10100 :
b11110 ;
b11110 <
#500000
0&
0'
#510000
b1100 !
b1100 $
1&
1'
b0 ,
0-
b1000101 7
b100000 9
b1010 :
b10100 <
#520000
0&
0'
#530000
1&
1'
b0 7
#540000
0&
0'
#550000
b100 "
b1 #
b10000 $
1&
1'
b1001 ,
b1 7
b0 9
b11101 :
#560000
0&
0'
#570000
1&
1'
b10 7
#580000
0&
0'
#590000
b10000 !
b10100 $
1&
1'
1*
b10000 +
b10000 /
b11 7
#600000
0&
0'
#610000
b0 "
b10000 $
b0 %
1&
1'
b0 (
0*
b0 4
b0 5
b0 6
b100 7
#620000
0&
0'
#630000
1&
1'
b0 )
b110 7
b10000 8
b0 <
#640000
0&
0'
#650000
1&
1'
#660000
0&
0'
#670000
1&
1'
#680000
0&
0'
#690000
1&
1'
#700000
0&
0'
#710000
1&
1'
#720000
0&
0'
#730000
1&
1'
#740000
0&
0'
#750000
1&
1'
#760000
0&
0'
#770000
1&
1'
#780000
0&
0'
#790000
1&
1'
#800000
0&
0'
#810000
1&
1'
#820000
0&
0'
#830000
1&
1'
#840000
0&
0'
#850000
1&
1'
#860000
0&
0'
#870000
1&
1'
#880000
0&
0'
#890000
1&
1'
#900000
0&
0'
#910000
1&
1'
#920000
0&
0'
#930000
1&
1'
#940000
0&
0'
#950000
1&
1'
#960000
0&
0'
#970000
1&
1'
#980000
0&
0'
#990000
1&
1'
