CPUQuartus/mipsHardware.vcd
$comment
Copyright (C) 1991-2010 Altera Corporation
Your use of Altera Corporation's design tools, logic functions 
and other software and tools, and its AMPP partner logic 
functions, and any output files from any of the foregoing 
(including device programming or simulation files), and any 
associated documentation or information are expressly subject 
to the terms and conditions of the Altera Program License 
Subscription Agreement, Altera MegaCore Function License 
Agreement, or other applicable license agreement, including, 
without limitation, that your use is for the sole purpose of 
programming logic devices manufactured by Altera and sold by 
Altera or its authorized distributors.  Please refer to the 
applicable agreement for further details.
$end

$date 
  10/15/2019 18:22:52 
$end
$version 
 QUARTUS_VCD_EXPORT 1.0 
$end
$timescale
  1 ps
$end
$scope module schemeHard $end
$var reg 32 ! aluAOut[31:0] $end
$var reg 32 " aluBOut[31:0] $end
$var reg 3 # alucontrol[2:0] $end
$var reg 32 $ aluresult[31:0] $end
$var reg 16 % bSExtended[15:0] $end
$var reg 1 & clk $end
$var reg 1 ' debug $end
$var reg 6 ( funct[5:0] $end
$var reg 6 ) functOut[5:0] $end
$var reg 1 * instControl $end
$var reg 32 + IORDout[31:0] $end
$var reg 4 , memtoRegmux[3:0] $end
$var reg 32 - pcOut[31:0] $end
$var reg 5 . rd[4:0] $end
$var reg 1 / RegWriteC $end
$var reg 1 0 reset $end
$var reg 1 1 resetD2 $end
$var reg 5 2 rs[4:0] $end
$var reg 5 3 rt[4:0] $end
$var reg 32 4 sExtended[31:0] $end
$var reg 7 5 stateOut[6:0] $end
$var reg 32 6 ulaOut_t[31:0] $end
$var reg 32 7 wrData[31:0] $end
$var reg 5 8 wrReg[4:0] $end
$scope module inst6 $end
$var reg 32 9 Reg10[31:0] $end
$var reg 32 : Reg20[31:0] $end
$upscope $end
$upscope $end
$enddefinitions $end
#0
$dumpvars
b0 !
b0 "
b0 #
b0 $
b0 %
0&
0'
b0 (
b0 )
0*
b0 +
b0 ,
b0 -
b0 .
0/
00
01
b0 2
b0 3
b0 4
b0 5
b0 6
b0 7
b0 8
b0 9
b0 :
$end
#10000
b100 "
b1 #
b100 $
1&
1'
b1001 ,
b1 5
#20000
0&
0'
#30000
1&
1'
b10 5
#40000
0&
0'
#50000
b100 !
b1000 $
1&
1'
1*
b100 +
b100 -
b11 5
#60000
0&
0'
#70000
b101000 "
b101100 $
b1010 %
1&
1'
b1010 (
0*
b10100 2
b10100 3
b1010 4
b100 5
b10100 8
#80000
0&
0'
#90000
1&
1'
b1010 )
b110 5
b101100 6
#100000
0&
0'
#110000
b0 !
b1010 "
b1010 $
1&
1'
b1010 5
#120000
0&
0'
#130000
b0 "
b0 #
b0 $
1&
1'
b0 ,
1/
b1000100 5
b1010 6
b1010 7
#140000
0&
0'
#150000
b100 !
b100 $
1&
1'
0/
b1000101 5
b1010 :
#160000
0&
0'
#170000
b1010 "
1&
1'
b0 5
#180000
0&
0'
#190000
b100 "
b1 #
b1000 $
1&
1'
b1001 ,
b1 5
b0 7
#200000
0&
0'
#210000
1&
1'
b10 5
#220000
0&
0'
#230000
b1000 !
b1100 $
1&
1'
1*
b1000 +
b1000 -
b11 5
#240000
0&
0'
#250000
b101000 "
b110000 $
1&
1'
0*
b1010 3
b100 5
#260000
0&
0'
#270000
1&
1'
b110 5
b110000 6
#280000
0&
0'
#290000
b1010 !
b1010 "
b10100 $
1&
1'
b1010 5
#300000
0&
0'
#310000
b0 "
b0 #
b1010 $
1&
1'
b0 ,
1/
b1000100 5
b10100 6
b10100 7
b1010 8
#320000
0&
0'
#330000
b1000 !
b1000 $
1&
1'
0/
b1000101 5
b10100 9
#340000
0&
0'
#350000
b10100 "
1&
1'
b0 5
#360000
0&
0'
#370000
b100 "
b1 #
b1100 $
1&
1'
b1001 ,
b1 5
b0 7
b10100 8
#380000
0&
0'
#390000
1&
1'
b10 5
#400000
0&
0'
#410000
b1100 !
b10000 $
1&
1'
1*
b1100 +
b1100 -
b11 5
#420000
0&
0'
#430000
b10100000010001000 "
b10100000010010100 $
b101000000100010 %
1&
1'
b100010 (
0*
b1010 .
b1010 2
b10100 3
b101000000100010 4
b100 5
b1010 8
#440000
0&
0'
#450000
1&
1'
b100010 )
b110 5
b10100000010010100 6
#460000
0&
0'
#470000
b10100 !
b1010 "
b10 #
b1010 $
1&
1'
b111 5
#480000
0&
0'
#490000
b0 #
b10100 $
1&
1'
b0 ,
1/
b1000100 5
b1010 6
b1010 7
#500000
0&
0'
#510000
b1100 !
b1100 $
1&
1'
0/
b1000101 5
b10100 8
b1010 9
#520000
0&
0'
#530000
1&
1'
b0 5
#540000
0&
0'
#550000
b100 "
b1 #
b10000 $
1&
1'
b1001 ,
b1 5
b0 7
b1010 8
#560000
0&
0'
#570000
1&
1'
b10 5
#580000
0&
0'
#590000
b10000 !
b10100 $
1&
1'
1*
b10000 +
b10000 -
b11 5
#600000
0&
0'
#610000
b11111111111111101000000010010000 "
b11111111111111101000000010100000 $
b1010000000100100 %
1&
1'
b100100 (
0*
b10100 .
b11111111111111111010000000100100 4
b100 5
#620000
0&
0'
#630000
1&
1'
b100100 )
b110 5
b11111111111111101000000010100000 6
#640000
0&
0'
#650000
b1010 !
b1010 "
b11 #
b1010 $
1&
1'
b111 5
#660000
0&
0'
#670000
b0 #
1&
1'
b0 ,
1/
b1000100 5
b1010 6
b1010 7
b10100 8
#680000
0&
0'
#690000
b10000 !
b10000 $
1&
1'
0/
b1000101 5
#700000
0&
0'
#710000
1&
1'
b0 5
#720000
0&
0'
#730000
b100 "
b1 #
b10100 $
1&
1'
b1001 ,
b1 5
b0 7
b1010 8
#740000
0&
0'
#750000
1&
1'
b10 5
#760000
0&
0'
#770000
b10100 !
b11000 $
1&
1'
1*
b10100 +
b10100 -
b11 5
#780000
0&
0'
#790000
b11111111111111101000000010000000 "
b11111111111111101000000010010100 $
b1010000000100000 %
1&
1'
b100000 (
0*
b11111111111111111010000000100000 4
b100 5
#800000
0&
0'
#810000
1&
1'
b100000 )
b110 5
b11111111111111101000000010010100 6
#820000
0&
0'
#830000
b1010 !
b1010 "
b10100 $
1&
1'
b111 5
#840000
0&
0'
#850000
b0 #
b1010 $
1&
1'
b0 ,
1/
b1000100 5
b10100 6
b10100 7
b10100 8
#860000
0&
0'
#870000
b10100 !
b10100 $
1&
1'
0/
b1000101 5
b10100 :
#880000
0&
0'
#890000
b10100 "
1&
1'
b0 5
#900000
0&
0'
#910000
b100 "
b1 #
b11000 $
1&
1'
b1001 ,
b1 5
b0 7
b1010 8
#920000
0&
0'
#930000
1&
1'
b10 5
#940000
0&
0'
#950000
b11000 !
b11100 $
1&
1'
1*
b11000 +
b11000 -
b11 5
#960000
0&
0'
#970000
b0 "
b11000 $
b0 %
1&
1'
b0 (
0*
b0 .
b0 2
b0 3
b0 4
b100 5
b0 8
#980000
0&
0'
#990000
1&
1'
b0 )
b110 5
b11000 6
